^G:\COCOSPROJECTS\POKEMON\PROJ.WIN32\MAIN.CPP
G:\COCOSPROJECTS\POKEMON\PROJ.WIN32\RELEASE.WIN32\MAIN.OBJ
^G:\COCOSPROJECTS\POKEMON\PROJ.WIN32\POKEMON\POKEMON.CPP
G:\COCOSPROJECTS\POKEMON\PROJ.WIN32\RELEASE.WIN32\POKEMON.OBJ
^G:\COCOSPROJECTS\POKEMON\PROJ.WIN32\SOUND\SOUNDMANAGER.CPP
G:\COCOSPROJECTS\POKEMON\PROJ.WIN32\RELEASE.WIN32\SOUNDMANAGER.OBJ
^G:\COCOSPROJECTS\POKEMON\CLASSES\APPPOKEMON.CPP|G:\COCOSPROJECTS\POKEMON\PROJ.WIN32\CHARACTERS\CHARACTER.CPP|G:\COCOSPROJECTS\POKEMON\PROJ.WIN32\CHARACTERS\TRAINER.CPP|G:\COCOSPROJECTS\POKEMON\PROJ.WIN32\MAPS\MAPMANAGER.CPP|G:\COCOSPROJECTS\POKEMON\PROJ.WIN32\TOOLS\DEBUG.CPP
G:\COCOSPROJECTS\POKEMON\PROJ.WIN32\RELEASE.WIN32\DEBUG.OBJ
G:\COCOSPROJECTS\POKEMON\PROJ.WIN32\RELEASE.WIN32\MAPMANAGER.OBJ
G:\COCOSPROJECTS\POKEMON\PROJ.WIN32\RELEASE.WIN32\APPPOKEMON.OBJ
G:\COCOSPROJECTS\POKEMON\PROJ.WIN32\RELEASE.WIN32\TRAINER.OBJ
^G:\COCOSPROJECTS\POKEMON\PROJ.WIN32\CHARACTERS\CHARACTER.CPP|G:\COCOSPROJECTS\POKEMON\PROJ.WIN32\CHARACTERS\TRAINER.CPP|G:\COCOSPROJECTS\POKEMON\PROJ.WIN32\MAPS\MAPMANAGER.CPP
G:\COCOSPROJECTS\POKEMON\PROJ.WIN32\RELEASE.WIN32\TRAINER.OBJ
G:\COCOSPROJECTS\POKEMON\PROJ.WIN32\RELEASE.WIN32\MAPMANAGER.OBJ
^G:\COCOSPROJECTS\POKEMON\CLASSES\APPPOKEMON.CPP|G:\COCOSPROJECTS\POKEMON\PROJ.WIN32\CHARACTERS\CHARACTER.CPP|G:\COCOSPROJECTS\POKEMON\PROJ.WIN32\CHARACTERS\TRAINER.CPP|G:\COCOSPROJECTS\POKEMON\PROJ.WIN32\MAPS\MAPMANAGER.CPP|G:\COCOSPROJECTS\POKEMON\PROJ.WIN32\SCENE\SCENEMANAGER.CPP
G:\COCOSPROJECTS\POKEMON\PROJ.WIN32\RELEASE.WIN32\TRAINER.OBJ
G:\COCOSPROJECTS\POKEMON\PROJ.WIN32\RELEASE.WIN32\APPPOKEMON.OBJ
G:\COCOSPROJECTS\POKEMON\PROJ.WIN32\RELEASE.WIN32\SCENEMANAGER.OBJ
G:\COCOSPROJECTS\POKEMON\PROJ.WIN32\RELEASE.WIN32\MAPMANAGER.OBJ
^G:\COCOSPROJECTS\POKEMON\CLASSES\APPDELEGATE.CPP|G:\COCOSPROJECTS\POKEMON\CLASSES\APPPOKEMON.CPP|G:\COCOSPROJECTS\POKEMON\PROJ.WIN32\CHARACTERS\CHARACTER.CPP|G:\COCOSPROJECTS\POKEMON\PROJ.WIN32\CHARACTERS\TRAINER.CPP|G:\COCOSPROJECTS\POKEMON\PROJ.WIN32\MAPS\MAPMANAGER.CPP|G:\COCOSPROJECTS\POKEMON\PROJ.WIN32\TOOLS\DEBUG.CPP|G:\COCOSPROJECTS\POKEMON\PROJ.WIN32\UI\BELTUI.CPP
G:\COCOSPROJECTS\POKEMON\PROJ.WIN32\RELEASE.WIN32\APPDELEGATE.OBJ
G:\COCOSPROJECTS\POKEMON\PROJ.WIN32\RELEASE.WIN32\DEBUG.OBJ
G:\COCOSPROJECTS\POKEMON\PROJ.WIN32\RELEASE.WIN32\CHARACTER.OBJ
G:\COCOSPROJECTS\POKEMON\PROJ.WIN32\RELEASE.WIN32\TRAINER.OBJ
G:\COCOSPROJECTS\POKEMON\PROJ.WIN32\RELEASE.WIN32\BELTUI.OBJ
G:\COCOSPROJECTS\POKEMON\PROJ.WIN32\RELEASE.WIN32\MAPMANAGER.OBJ
G:\COCOSPROJECTS\POKEMON\PROJ.WIN32\RELEASE.WIN32\APPPOKEMON.OBJ
^G:\COCOSPROJECTS\POKEMON\CLASSES\APPPOKEMON.CPP|G:\COCOSPROJECTS\POKEMON\PROJ.WIN32\MAPS\MAPMANAGER.CPP
G:\COCOSPROJECTS\POKEMON\PROJ.WIN32\RELEASE.WIN32\MAPMANAGER.OBJ
G:\COCOSPROJECTS\POKEMON\PROJ.WIN32\RELEASE.WIN32\APPPOKEMON.OBJ
^G:\COCOSPROJECTS\POKEMON\CLASSES\APPDELEGATE.CPP|G:\COCOSPROJECTS\POKEMON\CLASSES\APPPOKEMON.CPP|G:\COCOSPROJECTS\POKEMON\PROJ.WIN32\CHARACTERS\CHARACTER.CPP|G:\COCOSPROJECTS\POKEMON\PROJ.WIN32\CHARACTERS\TRAINER.CPP|G:\COCOSPROJECTS\POKEMON\PROJ.WIN32\MAPS\MAPMANAGER.CPP|G:\COCOSPROJECTS\POKEMON\PROJ.WIN32\SCENE\SCENEMANAGER.CPP|G:\COCOSPROJECTS\POKEMON\PROJ.WIN32\TOOLS\DEBUG.CPP|G:\COCOSPROJECTS\POKEMON\PROJ.WIN32\UI\BELTUI.CPP|G:\COCOSPROJECTS\POKEMON\PROJ.WIN32\UI\UIMANAGER.CPP
G:\COCOSPROJECTS\POKEMON\PROJ.WIN32\RELEASE.WIN32\APPDELEGATE.OBJ
G:\COCOSPROJECTS\POKEMON\PROJ.WIN32\RELEASE.WIN32\DEBUG.OBJ
G:\COCOSPROJECTS\POKEMON\PROJ.WIN32\RELEASE.WIN32\APPPOKEMON.OBJ
G:\COCOSPROJECTS\POKEMON\PROJ.WIN32\RELEASE.WIN32\SCENEMANAGER.OBJ
G:\COCOSPROJECTS\POKEMON\PROJ.WIN32\RELEASE.WIN32\CHARACTER.OBJ
G:\COCOSPROJECTS\POKEMON\PROJ.WIN32\RELEASE.WIN32\TRAINER.OBJ
G:\COCOSPROJECTS\POKEMON\PROJ.WIN32\RELEASE.WIN32\UIMANAGER.OBJ
G:\COCOSPROJECTS\POKEMON\PROJ.WIN32\RELEASE.WIN32\MAPMANAGER.OBJ
G:\COCOSPROJECTS\POKEMON\PROJ.WIN32\RELEASE.WIN32\BELTUI.OBJ
^G:\COCOSPROJECTS\POKEMON\PROJ.WIN32\SCENE\SCENEMANAGER.CPP
G:\COCOSPROJECTS\POKEMON\PROJ.WIN32\RELEASE.WIN32\VC120.PDB
^G:\COCOSPROJECTS\POKEMON\PROJ.WIN32\UI\BELTUI.CPP
G:\COCOSPROJECTS\POKEMON\PROJ.WIN32\RELEASE.WIN32\VC120.PDB
^G:\COCOSPROJECTS\POKEMON\PROJ.WIN32\UI\UIMANAGER.CPP
G:\COCOSPROJECTS\POKEMON\PROJ.WIN32\RELEASE.WIN32\VC120.PDB
^G:\COCOSPROJECTS\POKEMON\CLASSES\APPDELEGATE.CPP|G:\COCOSPROJECTS\POKEMON\CLASSES\APPPOKEMON.CPP|G:\COCOSPROJECTS\POKEMON\PROJ.WIN32\CHARACTERS\CHARACTER.CPP|G:\COCOSPROJECTS\POKEMON\PROJ.WIN32\CHARACTERS\TRAINER.CPP|G:\COCOSPROJECTS\POKEMON\PROJ.WIN32\MAPS\MAPMANAGER.CPP|G:\COCOSPROJECTS\POKEMON\PROJ.WIN32\TOOLS\DEBUG.CPP
G:\COCOSPROJECTS\POKEMON\PROJ.WIN32\RELEASE.WIN32\TRAINER.OBJ
G:\COCOSPROJECTS\POKEMON\PROJ.WIN32\RELEASE.WIN32\MAPMANAGER.OBJ
G:\COCOSPROJECTS\POKEMON\PROJ.WIN32\RELEASE.WIN32\APPPOKEMON.OBJ
G:\COCOSPROJECTS\POKEMON\PROJ.WIN32\RELEASE.WIN32\APPDELEGATE.OBJ
G:\COCOSPROJECTS\POKEMON\PROJ.WIN32\RELEASE.WIN32\CHARACTER.OBJ
G:\COCOSPROJECTS\POKEMON\PROJ.WIN32\RELEASE.WIN32\DEBUG.OBJ
^G:\COCOSPROJECTS\POKEMON\CLASSES\APPDELEGATE.CPP
G:\COCOSPROJECTS\POKEMON\PROJ.WIN32\RELEASE.WIN32\VC120.PDB
^G:\COCOSPROJECTS\POKEMON\CLASSES\APPPOKEMON.CPP
G:\COCOSPROJECTS\POKEMON\PROJ.WIN32\RELEASE.WIN32\VC120.PDB
^G:\COCOSPROJECTS\POKEMON\PROJ.WIN32\CHARACTERS\CHARACTER.CPP
G:\COCOSPROJECTS\POKEMON\PROJ.WIN32\RELEASE.WIN32\VC120.PDB
^G:\COCOSPROJECTS\POKEMON\PROJ.WIN32\CHARACTERS\TRAINER.CPP
G:\COCOSPROJECTS\POKEMON\PROJ.WIN32\RELEASE.WIN32\VC120.PDB
^G:\COCOSPROJECTS\POKEMON\PROJ.WIN32\MAPS\MAPMANAGER.CPP
G:\COCOSPROJECTS\POKEMON\PROJ.WIN32\RELEASE.WIN32\VC120.PDB
^G:\COCOSPROJECTS\POKEMON\PROJ.WIN32\TOOLS\DEBUG.CPP
G:\COCOSPROJECTS\POKEMON\PROJ.WIN32\RELEASE.WIN32\VC120.PDB
