^G:\CocosProjects\Pokemon\proj.win32\Pokemon.vcxproj
G:\CocosProjects\Pokemon\proj.win32\Release.win32\Pokemon.lib
G:\CocosProjects\Pokemon\proj.win32\Release.win32\Pokemon.exp
^G:\CocosProjects\Pokemon\proj.win32\Pokemon.vcxproj
G:\CocosProjects\Pokemon\proj.win32\Release.win32\Pokemon.lib
G:\CocosProjects\Pokemon\proj.win32\Release.win32\Pokemon.exp
^G:\CocosProjects\Pokemon\proj.win32\Pokemon.vcxproj
G:\CocosProjects\Pokemon\proj.win32\Release.win32\Pokemon.lib
G:\CocosProjects\Pokemon\proj.win32\Release.win32\Pokemon.exp
^G:\CocosProjects\Pokemon\proj.win32\Pokemon.vcxproj
G:\CocosProjects\Pokemon\proj.win32\Release.win32\Pokemon.lib
G:\CocosProjects\Pokemon\proj.win32\Release.win32\Pokemon.exp
^G:\CocosProjects\Pokemon\proj.win32\Pokemon.vcxproj
G:\CocosProjects\Pokemon\proj.win32\Release.win32\Pokemon.lib
G:\CocosProjects\Pokemon\proj.win32\Release.win32\Pokemon.exp
^G:\CocosProjects\Pokemon\proj.win32\Pokemon.vcxproj
G:\CocosProjects\Pokemon\proj.win32\Release.win32\Pokemon.lib
G:\CocosProjects\Pokemon\proj.win32\Release.win32\Pokemon.exp
^G:\CocosProjects\Pokemon\proj.win32\Pokemon.vcxproj
G:\CocosProjects\Pokemon\proj.win32\Release.win32\Pokemon.lib
G:\CocosProjects\Pokemon\proj.win32\Release.win32\Pokemon.exp
^G:\CocosProjects\Pokemon\proj.win32\Pokemon.vcxproj
G:\CocosProjects\Pokemon\proj.win32\Release.win32\Pokemon.lib
G:\CocosProjects\Pokemon\proj.win32\Release.win32\Pokemon.exp
^G:\CocosProjects\Pokemon\proj.win32\Pokemon.vcxproj
G:\CocosProjects\Pokemon\proj.win32\Release.win32\Pokemon.lib
G:\CocosProjects\Pokemon\proj.win32\Release.win32\Pokemon.exp
^G:\CocosProjects\Pokemon\proj.win32\Pokemon.vcxproj
G:\CocosProjects\Pokemon\proj.win32\Release.win32\Pokemon.lib
G:\CocosProjects\Pokemon\proj.win32\Release.win32\Pokemon.exp
^G:\CocosProjects\Pokemon\proj.win32\Pokemon.vcxproj
G:\CocosProjects\Pokemon\proj.win32\Release.win32\Pokemon.lib
G:\CocosProjects\Pokemon\proj.win32\Release.win32\Pokemon.exp
^G:\CocosProjects\Pokemon\proj.win32\Pokemon.vcxproj
G:\CocosProjects\Pokemon\proj.win32\Release.win32\Pokemon.lib
G:\CocosProjects\Pokemon\proj.win32\Release.win32\Pokemon.exp
^G:\CocosProjects\Pokemon\proj.win32\Pokemon.vcxproj
G:\CocosProjects\Pokemon\proj.win32\Release.win32\Pokemon.lib
G:\CocosProjects\Pokemon\proj.win32\Release.win32\Pokemon.exp
^G:\CocosProjects\Pokemon\proj.win32\Pokemon.vcxproj
G:\CocosProjects\Pokemon\proj.win32\Release.win32\Pokemon.lib
G:\CocosProjects\Pokemon\proj.win32\Release.win32\Pokemon.exp
^G:\CocosProjects\Pokemon\proj.win32\Pokemon.vcxproj
G:\CocosProjects\Pokemon\proj.win32\Release.win32\Pokemon.lib
G:\CocosProjects\Pokemon\proj.win32\Release.win32\Pokemon.exp
